{
  "project_info": {
    "project_number": "220146719075",
    "firebase_url": "https://allco-3d593.firebaseio.com",
    "project_id": "allco-3d593",
    "storage_bucket": "allco-3d593.appspot.com"
  },
  "client": [
    {
      "client_info": {
        "mobilesdk_app_id": "1:220146719075:android:fc7ea938f4509c75bc5b56",
        "android_client_info": {
          "package_name": "com.allco"
        }
      },
      "oauth_client": [
        {
          "client_id": "220146719075-a9rmos15vt4a3b1c8bpv4l0gbfcsju5a.apps.googleusercontent.com",
          "client_type": 3
        }
      ],
      "api_key": [
        {
          "current_key": "AIzaSyBP1utkb-mMVclxvosx6CkHBOa-E_4wjt8"
        }
      ],
      "services": {
        "appinvite_service": {
          "other_platform_oauth_client": [
            {
              "client_id": "220146719075-a9rmos15vt4a3b1c8bpv4l0gbfcsju5a.apps.googleusercontent.com",
              "client_type": 3
            }
          ]
        }
      }
    },
    {
      "client_info": {
        "mobilesdk_app_id": "1:220146719075:android:6dabb7b641c4b03dbc5b56",
        "android_client_info": {
          "package_name": "com.example.allco"
        }
      },
      "oauth_client": [
        {
          "client_id": "220146719075-a9rmos15vt4a3b1c8bpv4l0gbfcsju5a.apps.googleusercontent.com",
          "client_type": 3
        }
      ],
      "api_key": [
        {
          "current_key": "AIzaSyBP1utkb-mMVclxvosx6CkHBOa-E_4wjt8"
        }
      ],
      "services": {
        "appinvite_service": {
          "other_platform_oauth_client": [
            {
              "client_id": "220146719075-a9rmos15vt4a3b1c8bpv4l0gbfcsju5a.apps.googleusercontent.com",
              "client_type": 3
            }
          ]
        }
      }
    }
  ],
  "configuration_version": "1"
}